########## Response Object ########## 

Response {
  _bot: <ref *1> ViberBot {
    authToken: '4c80f768ff400d57-ea9a81f62bb83ed0-ac69f543736da70a',
    name: 'Usi_Insurance_Bot',
    avatar: 'https://gravatar.com/avatar/f642151da6102d8644b406cf93791e7e?s=400&d=robohash&r=x',
    _logger: DerivedLogger {
      _readableState: [ReadableState],
      readable: true,
      _events: [Object: null prototype],
      _eventsCount: 3,
      _maxListeners: undefined,
      _writableState: [WritableState],
      writable: true,
      allowHalfOpen: true,
      _transformState: [Object],
      silent: undefined,
      format: [Format],
      defaultMeta: [Object],
      levels: [Object],
      level: 'debug',
      exceptions: [ExceptionHandler],
      rejections: [RejectionHandler],
      profilers: {},
      exitOnError: true,
      [Symbol(kCapture)]: false
    },
    _client: ViberClient {
      _logger: [DerivedLogger],
      _bot: [Circular *1],
      _url: 'https://chatapi.viber.com/pa',
      _subscribedEvents: [Array],
      _userAgent: 'ViberBot-Node/1.0.16'
    },
    _middleware: Middleware {
      _logger: [DerivedLogger],
      _stream: [Duplex],
      _buffer: null,
      _app: [Function]
    },
    _messageFactory: MessageFactory { _logger: [DerivedLogger], _mapping: [Object] },
    _regexMatcherRouter: RegexMatcherRouter {
      _logger: [DerivedLogger],
      _textRegexpCallbacks: []
    },
    _callbacks: { conversation_started: [] },
    _events: [Object: null prototype] {
      message: [Array],
      conversation_started: [Function (anonymous)]
    },
    _eventsCount: 2
  },
  userProfile: UserProfile {
    id: 'zjKxsQLVtGrD6wUIeBk4gg==',
    name: 'Subscriber',
    avatar: 'http://dl-media.viber.com/1/share/2/long/bots/generic-avatar%402x.png',
    country: 'UA',
    language: 'en-US',
    apiVersion: 8
  },
  silent: false,
  replyType: undefined,
  chatId: undefined
}

########## Button ##########
{
        "text": "Button 3",
        "timestamp": 1608040637564,
        "token": "5519632179945098295",
        "trackingData": {},
        "keyboard": null,
        "requiredArguments": [
                "text"
        ]
}